…
tidy_study_df
```

    ## # A tibble: 160 × 4
    ##    subject_ID control_arm  week observation
    ##    <chr>      <chr>       <dbl>       <dbl>
    ##  1 01         control         1        0.2 
    ##  2 01         control         2       -1.31
    ##  3 01         control         3        0.66
    ##  4 01         control         4        1.96
    ##  5 01         control         5        0.23
    ##  6 01         control         6        1.09
    ##  7 01         control         7        0.05
    ##  8 01         control         8        1.94
    ##  9 02         control         1        1.13
    ## 10 02         control         2       -0.88
    ## # ℹ 150 more rows
…
